{
	"info": {
		"_postman_id": "40c04071-0e5c-40c2-b707-2992bf8b584c",
		"name": "DroneApp",
		"schema": "https://schema.getpostman.com/json/collection/v2.1.0/collection.json"
	},
	"item": [
		{
			"name": "LoadMedication",
			"request": {
				"method": "POST",
				"header": [],
				"body": {
					"mode": "formdata",
					"formdata": [
						{
							"key": "name",
							"value": "Grenage",
							"type": "text"
						},
						{
							"key": "code",
							"value": "cd22345",
							"type": "text"
						},
						{
							"key": "drone_id",
							"value": "1",
							"type": "text"
						},
						{
							"key": "image",
							"type": "file",
							"src": "/C:/Users/swifta/Pictures/aa.PNG"
						},
						{
							"key": "weight",
							"value": "150",
							"type": "text"
						}
					]
				},
				"url": {
					"raw": "http://localhost:8080/api/medication",
					"protocol": "http",
					"host": [
						"localhost"
					],
					"port": "8080",
					"path": [
						"api",
						"medication"
					]
				}
			},
			"response": []
		},
		{
			"name": "GetMedication",
			"protocolProfileBehavior": {
				"disableBodyPruning": true
			},
			"request": {
				"method": "GET",
				"header": [],
				"body": {
					"mode": "formdata",
					"formdata": [
						{
							"key": "droneId",
							"value": "1",
							"type": "text"
						}
					]
				},
				"url": {
					"raw": "http://localhost:8080/api/medication",
					"protocol": "http",
					"host": [
						"localhost"
					],
					"port": "8080",
					"path": [
						"api",
						"medication"
					]
				}
			},
			"response": []
		},
		{
			"name": "GetDroneModel",
			"protocolProfileBehavior": {
				"disableBodyPruning": true
			},
			"request": {
				"method": "GET",
				"header": [],
				"body": {
					"mode": "raw",
					"raw": "",
					"options": {
						"raw": {
							"language": "json"
						}
					}
				},
				"url": {
					"raw": "http://localhost:8080/api/drone_model",
					"protocol": "http",
					"host": [
						"localhost"
					],
					"port": "8080",
					"path": [
						"api",
						"drone_model"
					]
				}
			},
			"response": []
		},
		{
			"name": "AddDrone",
			"request": {
				"method": "POST",
				"header": [],
				"body": {
					"mode": "raw",
					"raw": "{\r\n  \"battery_capacity\": 100,\r\n  \"model_id\": 1,\r\n  \"serial_number\": \"sn12345\",\r\n  \"state\": \"IDLE\",\r\n  \"weight_limit\": 20\r\n}",
					"options": {
						"raw": {
							"language": "json"
						}
					}
				},
				"url": {
					"raw": "http://localhost:8080/api/drone",
					"protocol": "http",
					"host": [
						"localhost"
					],
					"port": "8080",
					"path": [
						"api",
						"drone"
					]
				}
			},
			"response": []
		},
		{
			"name": "GetDroneBatteryLevel",
			"request": {
				"method": "GET",
				"header": [],
				"url": {
					"raw": "http://localhost:8080/api/drone/1/battery",
					"protocol": "http",
					"host": [
						"localhost"
					],
					"port": "8080",
					"path": [
						"api",
						"drone",
						"1",
						"battery"
					]
				}
			},
			"response": []
		},
		{
			"name": "GetAvailableDrone",
			"request": {
				"method": "GET",
				"header": [],
				"url": {
					"raw": "http://localhost:8080/api/drone/available",
					"protocol": "http",
					"host": [
						"localhost"
					],
					"port": "8080",
					"path": [
						"api",
						"drone",
						"available"
					]
				}
			},
			"response": []
		}
	]
}